<svg width="35.000000" height="37.000000" viewBox="0 0 35 37" fill="none" xmlns="http://www.w3.org/2000/svg" xmlns:xlink="http://www.w3.org/1999/xlink">
	<desc>
			Created with Pixso.
	</desc>
	<defs/>
	<path id="Vector" d="M0 -0.81L3.78 -0.81Q4.12 -0.81 4.35 -0.57Q4.58 -0.34 4.58 0L4.58 3.04L30.37 4.88Q30.7 4.9 30.91 5.16Q31.13 5.41 31.11 5.74Q31.11 5.75 31.11 5.76Q31.1 5.78 31.1 5.79L29.75 15.3C29.68 15.74 29.28 16.04 28.84 15.98C28.4 15.91 28.1 15.51 28.16 15.07L29.4 6.42L4.58 4.64L4.58 18.14L14.21 18.14L14.21 19.74L4.58 19.74L4.58 25.72L11.36 25.72C11.81 25.72 12.16 26.07 12.16 26.52C12.16 26.97 11.81 27.32 11.36 27.32L7.27 27.32Q7.76 27.89 8.04 28.55Q8.37 29.36 8.37 30.31Q8.37 31.26 8.04 32.07Q7.7 32.88 7.03 33.56Q6.36 34.23 5.55 34.56Q4.74 34.9 3.78 34.9Q2.83 34.9 2.02 34.56Q1.21 34.23 0.54 33.56Q-0.13 32.88 -0.47 32.07Q-0.81 31.26 -0.81 30.31Q-0.81 29.36 -0.47 28.55Q-0.13 27.74 0.54 27.07Q1.21 26.39 2.02 26.06Q2.48 25.87 2.99 25.78L2.99 3.8C2.99 3.79 2.99 3.78 2.99 3.77L2.99 0.8L0 0.8C-0.45 0.8 -0.81 0.44 -0.81 0C-0.81 -0.45 -0.45 -0.81 0 -0.81ZM3.78 27.32Q3.16 27.32 2.64 27.54Q2.11 27.76 1.67 28.2Q1.23 28.63 1.01 29.16Q0.8 29.69 0.8 30.31Q0.8 30.93 1.01 31.46Q1.23 31.99 1.67 32.42Q2.11 32.86 2.64 33.08Q3.16 33.3 3.78 33.3Q4.4 33.3 4.93 33.08Q5.46 32.86 5.9 32.42Q6.34 31.99 6.56 31.46Q6.77 30.93 6.77 30.31Q6.77 29.69 6.56 29.16Q6.34 28.63 5.9 28.2Q5.46 27.76 4.93 27.54Q4.4 27.32 3.78 27.32ZM33.43 30.35L33.43 30.34Q33.78 30 34.05 29.61Q34.32 29.21 34.52 28.76Q34.71 28.3 34.8 27.83Q34.9 27.36 34.9 26.87Q34.9 26.37 34.81 25.9Q34.71 25.43 34.52 24.98Q34.33 24.52 34.06 24.12Q33.79 23.73 33.44 23.38Q32.7 22.66 31.83 22.31Q30.94 21.95 29.92 21.94Q28.89 21.94 28.01 22.3Q27.21 22.62 26.53 23.24Q25.84 22.62 25.04 22.29Q24.16 21.93 23.14 21.93Q22.12 21.93 21.24 22.29Q20.35 22.64 19.62 23.36Q19.27 23.7 18.99 24.1Q18.72 24.49 18.53 24.95Q18.34 25.4 18.24 25.87Q18.14 26.34 18.14 26.84Q18.14 27.33 18.24 27.8Q18.33 28.27 18.52 28.73Q18.71 29.18 18.98 29.58Q19.25 29.98 19.6 30.32L25.96 36.57Q26.19 36.79 26.52 36.8Q26.85 36.8 27.08 36.57L33.43 30.35ZM32.73 28.7Q32.55 28.97 32.31 29.2L32.31 29.2L26.52 34.87L20.72 29.18Q20.49 28.95 20.31 28.68Q20.12 28.41 20 28.11Q19.87 27.8 19.81 27.49Q19.74 27.17 19.74 26.84Q19.74 26.51 19.81 26.19Q19.87 25.88 20 25.57Q20.13 25.27 20.31 25Q20.5 24.74 20.73 24.51Q21.24 24.02 21.84 23.77Q22.44 23.53 23.14 23.53Q23.85 23.53 24.45 23.78Q25.05 24.03 25.54 24.51L25.96 24.93Q26.2 25.16 26.52 25.16Q26.85 25.16 27.08 24.93L27.51 24.52Q28.01 24.03 28.61 23.79Q29.21 23.54 29.91 23.54Q30.61 23.54 31.22 23.79Q31.82 24.04 32.32 24.53Q32.56 24.76 32.74 25.02Q32.92 25.29 33.05 25.6Q33.17 25.9 33.24 26.22Q33.3 26.53 33.3 26.86Q33.3 27.19 33.24 27.51Q33.17 27.83 33.04 28.13Q32.91 28.44 32.73 28.7Z" fill="#3F71BC" fill-opacity="1.000000" fill-rule="evenodd"/>
</svg>
