<svg width="19.000000" height="17.000000" viewBox="0 0 19 17" fill="none" xmlns="http://www.w3.org/2000/svg" xmlns:xlink="http://www.w3.org/1999/xlink">
	<desc>
			Created with Pixso.
	</desc>
	<defs/>
	<path id="Vector" d="M14.66 0.8C14.1 0.58 13.5 0.46 12.9 0.46C12.29 0.46 11.7 0.58 11.14 0.8C10.58 1.03 10.08 1.36 9.65 1.78L9 2.43L8.34 1.78C7.91 1.36 7.41 1.03 6.85 0.8C6.29 0.58 5.7 0.46 5.09 0.46C4.49 0.46 3.89 0.58 3.33 0.8C2.78 1.03 2.27 1.36 1.84 1.78C0.04 3.55 -0.07 6.53 2.2 8.8L9 15.46L15.79 8.8C18.06 6.53 17.95 3.55 16.15 1.78C15.72 1.36 15.21 1.03 14.66 0.8Z" stroke="#000000" stroke-opacity="1.000000" stroke-width="1.300000" stroke-linejoin="round"/>
</svg>
